<svg id="bloquear" xmlns="http://www.w3.org/2000/svg" width="41.591" height="55.455" viewBox="0 0 41.591 55.455">
  <g id="Grupo_244" data-name="Grupo 244" transform="translate(0)" fill="#000000">
    <path id="Trazado_1269" data-name="Trazado 1269" d="M104.436,20.8H100.97V16.174a16.174,16.174,0,0,0-32.349,0V20.8H65.155A1.155,1.155,0,0,0,64,21.951V50.834a4.626,4.626,0,0,0,4.621,4.621H100.97a4.626,4.626,0,0,0,4.621-4.621V21.951A1.155,1.155,0,0,0,104.436,20.8ZM88.255,44.93a1.156,1.156,0,0,1-1.149,1.283H82.485a1.156,1.156,0,0,1-1.149-1.283l.729-6.554a4.571,4.571,0,0,1-1.891-3.716,4.621,4.621,0,0,1,9.243,0,4.571,4.571,0,0,1-1.891,3.716ZM94.038,20.8H75.553V16.174a9.243,9.243,0,0,1,18.485,0Z" transform="translate(-64)" fill="#000000"/>
  </g>
</svg>
