<svg id="usuario-hombre" xmlns="http://www.w3.org/2000/svg" width="43.357" height="57.003" viewBox="0 0 43.357 57.003">
  <path fill="#000000" id="Trazado_1271" data-name="Trazado 1271" d="M116.011,27.878c6.338,0,11.476-6.241,11.476-13.939S125.8,0,116.011,0s-11.476,6.241-11.476,13.939S109.673,27.878,116.011,27.878Z" transform="translate(-94.333)" fill="white"/>
  <path fill="#000000" id="Trazado_1272" data-name="Trazado 1272" d="M41.9,300.613c0-.469,0-.132,0,0Z" transform="translate(-41.895 -251.452)" fill="#000000"/>
  <path fill="#000000" id="Trazado_1273" data-name="Trazado 1273" d="M308.085,301.912c.006-.128,0-.892,0,0Z" transform="translate(-264.732 -252.384)" fill="#000000"/>
  <path id="Trazado_1274" data-name="Trazado 1274" d="M85.235,197.391c-.213-13.411-1.964-17.232-15.367-19.651,0,0-1.887,2.4-6.284,2.4s-6.284-2.4-6.284-2.4c-13.256,2.393-15.114,6.157-15.359,19.215-.02,1.066-.029,1.122-.033,1,0,.232,0,.661,0,1.409,0,0,3.191,6.433,21.674,6.433s21.674-6.433,21.674-6.433c0-.481,0-.815,0-1.042A8.609,8.609,0,0,1,85.235,197.391Z" transform="translate(-41.906 -148.792)" fill="#000000"/>
</svg>
